[
    {
        "r_type": "_R0",
        "r_positions": [
            [
                -0.42749977111816406,
                0.25821447372436523,
                4.76837158203125e-07
            ],
            [
                -0.4375,
                -0.24107122421264648,
                4.76837158203125e-07
            ],
            [
                0.009999752044677734,
                0.4992861747741699,
                4.76837158203125e-07
            ],
            [
                -0.010000228881835938,
                -0.4992854595184326,
                4.76837158203125e-07
            ],
            [
                0.42749977111816406,
                -0.25821423530578613,
                4.76837158203125e-07
            ],
            [
                0.4375,
                0.2410717010498047,
                4.76837158203125e-07
            ]
        ],
        "r_types": [
            "C",
            "C",
            "C",
            "C",
            "C",
            "C"
        ]
    }
]